[gd_scene load_steps=3 format=2]

[ext_resource path="res://battle/Components/BattleCard.gd" type="Script" id=1]
[ext_resource path="res://battle/Components/ReadyBar.tscn" type="PackedScene" id=2]

[node name="BattleCard" type="PanelContainer"]
margin_right = 110.0
margin_bottom = 134.0
rect_min_size = Vector2( 110, 0 )
size_flags_horizontal = 4
size_flags_vertical = 4
script = ExtResource( 1 )

[node name="Spacer" type="MarginContainer" parent="."]
margin_left = 7.0
margin_top = 7.0
margin_right = 103.0
margin_bottom = 127.0
custom_constants/margin_right = 2
custom_constants/margin_top = 2
custom_constants/margin_left = 2
custom_constants/margin_bottom = 2

[node name="Stack" type="VBoxContainer" parent="Spacer"]
margin_left = 2.0
margin_top = 2.0
margin_right = 94.0
margin_bottom = 118.0
custom_constants/separation = 10

[node name="Label" type="Label" parent="Spacer/Stack"]
margin_right = 92.0
margin_bottom = 14.0
text = "1"
align = 1
clip_text = true

[node name="Name" type="Label" parent="Spacer/Stack"]
margin_top = 24.0
margin_right = 92.0
margin_bottom = 41.0
size_flags_horizontal = 3
size_flags_vertical = 7
text = "Marty McFly"
clip_text = true

[node name="HP" type="Label" parent="Spacer/Stack"]
margin_top = 51.0
margin_right = 92.0
margin_bottom = 65.0
text = "HP: 1000/2000 (50%)"
clip_text = true

[node name="RP" type="Label" parent="Spacer/Stack"]
margin_top = 75.0
margin_right = 92.0
margin_bottom = 89.0
text = "RP: 100/150 (66%)"
clip_text = true

[node name="ReadyBar" parent="Spacer/Stack" instance=ExtResource( 2 )]
margin_top = 99.0
margin_right = 92.0
margin_bottom = 116.0

[node name="TakeTurnButton" type="Button" parent="Spacer/Stack"]
visible = false
margin_top = 126.0
margin_right = 92.0
margin_bottom = 146.0
text = "Take Turn"
